"VertexlitGeneric"
{
	"$basetexture"			"models/doctorwho1200/copper/bulbcages_off"
	"$bumpmap"				"models/doctorwho1200/copper/normal"
	"$nodecal"				"1"
	"$model"				"1"

	"$phong"				"1"
	
	"$surfaceprop"			"plastic"
}