"VertexlitGeneric"
{
	"$basetexture"			"models/doctorwho1200/copper/chair"
	"$bumpmap"				"models/doctorwho1200/copper/chair_n"
	"$nodecal"				"1"
	"$model"				"1"

	"$phong"				"1"
	"$phongexponent"		"20"
	"$phongboost"			"3"
	"$phongfresnelranges"	"[0.05 0.5 1]"

	"$rimlight"				"1"
	"$rimlightexponent"		"2"
	"$rimlightboost"		"0.2"

	"$surfaceprop"			"rubber"
}