"VertexlitGeneric"
{
	"$basetexture"			"models/doctorwho1200/copper/doorsign"
	"$bumpmap"				"models/doctorwho1200/copper/normal"
	"$nodecal"				"1"
	"$model"				"1"

	"$selfillum"			"1"

	"$envmap"				"env_cubemap"
	"$envmaptint"			"[0.3 0.3 0.3]"

	"$phong"				"1"
	"$phongexponent"		"100"
	"$phongboost"			"1"
	"$phongfresnelranges"	"[0.05 0.5 1]"

	"$rimlight"				"1"
	"$rimlightexponent"		"2"
	"$rimlightboost"		"0.2"

	"$surfaceprop"			"tile"
}