"VertexlitGeneric"
{
	"$basetexture"				"models/doctorwho1200/copper/black"
	"$bumpmap"					"models/doctorwho1200/copper/normal"
	"$nodecal"					"1"
	"$model"					"1"

	"$phong"					"1"
	"$phongexponent"			"30"
	"$phongboost"				"1"
	"$phongfresnelranges"		"[0.05 0.5 1]"

	"$rimlight"					"1"
	"$rimlightexponent"			"2"
	"$rimlightboost"			"0.2"

	"$surfaceprop"				"plastic"
}