"Refract"
{
 	"$model"				"1"
	"$nodecal"				"1"
//	"$bluramount"			"1"
 	"$refractamount"		"-0.005"
	"$REFRACTTINT"			"{246 250 255}"
	"$scale"				"[1 1]"
 	"$dudvmap"				"models/effects/fisheyelens_dudv"
	"$normalmap"			"models/effects/fisheyelens_normal"

	"Refract_DX60"
	{
		"$fallbackmaterial"	"models/props_c17/fisheyelens_DX60"
	}

	"Refract_DX60"
	{
		"$fallbackmaterial"	"models/props_c17/fisheyelens_dx60"
	}
}