"VertexlitGeneric"
{
	"$basetexture"			"models/doctorwho1200/copper/rope"
	"$bumpmap"				"models/doctorwho1200/copper/normal"
	"$nodecal"				"1"
	"$model"				"1"

	"$phong"				"1"

	"$rimlight"				"1"
	"$rimlightexponent"		"2"
	"$rimlightboost"		"0.2"

	"$surfaceprop"			"carpet"
}