"VertexLitGeneric"
{
	"$basetexture"			"models/doctorwho1200/copper/stuff6"
	"$bumpmap"				"models/doctorwho1200/copper/normal"
	"$nodecal"				"1"
	"$model"				"1"

	"$envmap"				"models/vtalanov98/tardis2010/env_interior.hdr"
	"$envmaptint"			"[0.01 0.01 0.01]"

	"$phong"				"1"
	"$phongexponent"		"30"
	"$phongboost"			"1"
	"$phongfresnelranges"	"[0.05 0.5 1]"

	"$rimlight"				"1"
	"$rimlightexponent"		"2"
	"$rimlightboost"		"0.2"

	"$surfaceprop"			"plastic"
}